Warning[2068] C:\MCC18\h\lcd.h 188 : obsolete use of implicit 'int' detected
Warning[2068] C:\MCC18\h\lcd.h 198 : obsolete use of implicit 'int' detected
Warning[2068] C:\MCC18\h\lcd.h 206 : obsolete use of implicit 'int' detected
Warning[2068] C:\MCC18\h\lcd.h 213 : obsolete use of implicit 'int' detected
Warning[2068] C:\MCC18\h\lcd.h 222 : obsolete use of implicit 'int' detected
Warning[2068] C:\MCC18\h\lcd.h 227 : obsolete use of implicit 'int' detected
Warning[2068] C:\MCC18\h\lcd.h 260 : obsolete use of implicit 'int' detected
Warning[2058] D:\pic examples\adc\adc.c 26 : call of function without prototype
Warning[2058] D:\pic examples\adc\adc.c 27 : call of function without prototype
Warning[2058] D:\pic examples\adc\adc.c 29 : call of function without prototype
Warning[2058] D:\pic examples\adc\adc.c 43 : call of function without prototype
