Warning[2068] C:\MCC18\h\lcd.h 188 : obsolete use of implicit 'int' detected
Warning[2068] C:\MCC18\h\lcd.h 198 : obsolete use of implicit 'int' detected
Warning[2068] C:\MCC18\h\lcd.h 206 : obsolete use of implicit 'int' detected
Warning[2068] C:\MCC18\h\lcd.h 213 : obsolete use of implicit 'int' detected
Warning[2068] C:\MCC18\h\lcd.h 222 : obsolete use of implicit 'int' detected
Warning[2068] C:\MCC18\h\lcd.h 227 : obsolete use of implicit 'int' detected
Warning[2068] C:\MCC18\h\lcd.h 260 : obsolete use of implicit 'int' detected
Warning[2058] F:\2.pic codes\8.lcd1\lcd1.c 29 : call of function without prototype
Warning[2058] F:\2.pic codes\8.lcd1\lcd1.c 30 : call of function without prototype
Warning[2058] F:\2.pic codes\8.lcd1\lcd1.c 32 : call of function without prototype
Warning[2058] F:\2.pic codes\8.lcd1\lcd1.c 37 : call of function without prototype
